^E:\FALL 2018\CIS 306 - DISCRETE\PROG3\BINARY_SEARCH_TREE\BINARY_SEARCH_TREE\STDAFX.CPP
E:\FALL 2018\CIS 306 - DISCRETE\PROG3\BINARY_SEARCH_TREE\BINARY_SEARCH_TREE\DEBUG\BINARY_SEARCH_TREE.PCH
E:\FALL 2018\CIS 306 - DISCRETE\PROG3\BINARY_SEARCH_TREE\BINARY_SEARCH_TREE\DEBUG\VC141.PDB
E:\FALL 2018\CIS 306 - DISCRETE\PROG3\BINARY_SEARCH_TREE\BINARY_SEARCH_TREE\DEBUG\VC141.IDB
E:\FALL 2018\CIS 306 - DISCRETE\PROG3\BINARY_SEARCH_TREE\BINARY_SEARCH_TREE\DEBUG\STDAFX.OBJ
^E:\FALL 2018\CIS 306 - DISCRETE\PROG3\BINARY_SEARCH_TREE\BINARY_SEARCH_TREE\BINARY_SEARCH_TREE.CPP
E:\FALL 2018\CIS 306 - DISCRETE\PROG3\BINARY_SEARCH_TREE\BINARY_SEARCH_TREE\DEBUG\VC141.PDB
E:\FALL 2018\CIS 306 - DISCRETE\PROG3\BINARY_SEARCH_TREE\BINARY_SEARCH_TREE\DEBUG\VC141.IDB
E:\FALL 2018\CIS 306 - DISCRETE\PROG3\BINARY_SEARCH_TREE\BINARY_SEARCH_TREE\DEBUG\BINARY_SEARCH_TREE.OBJ
